{"MUSIC_ITEMS": [
"000066.eyeyerye.MP3",
"pinco pallino.MP3",
"67_eryeryery.MP3"]}

{"SPOT_ITEMS": [
"000066.eyeyerye.MP3",
"pinco pallino.MP3",
"67_eryeryery.MP3"]}

{"req": {"get": {"MUSIC_ITEMS": "" } } }

{"res": {"get": {"MUSIC_ITEMS": [{"000066.eyeyerye.MP3": [1, 2, 3]}, {"pinco pallino.MP3": [1, 2, 3]}, {"67_eryeryery.MP3": [1, 2, 3]} ]} } }

{"req": {"set": {"CMD": "play"}, {"IDX": idx}, {"FILE": "000066.eyeyerye.MP3"} } }
{"req": {"set": {"CMD": "stop"}, {"IDX": idx}, {"FILE": "000066.eyeyerye.MP3"} } }
{"req": {"set": {"CMD": "pause"}, {"IDX": idx}, {"FILE": "000066.eyeyerye.MP3"} } }


{"req": {"get": {"MUSIC_ITEMS": "" } } }

{"req": {"get": {
		"MUSIC_ITEMS": "",
		"NEXT": 2
 } } }

{"res": {"get": {
		"MUSIC_ITEMS": [{"000066.eyeyerye.MP3": [len,idGenre]}, {"pinco pallino.MP3": [len,idGenre]} ],
		"NEXT": 2
 } } }


{"req": {"cmd": 
		{
			"TYPE": "play", 
			"TRACK_IDX": idx, 
			"TRACK_NAME": "000066.eyeyerye.MP3"
		}
	}



{"req": {"cmd": 
		{
			"type": "stop"
		}
	}
}

{"res": {"cmd": 
		{
			"TYPE": "play", 
			"RESULT": "done",  oppure "RESULT": "error",
			"DESCR": "2154",
		}
	}
}


{"req": {"get": {"SPOT_ITEMS": "" } } }

{"req": {"get": {"SENSOR_ITEMS": "" } } }

{"req": {"get": {"PLAYLIST_ITEMS": "" } } }